{
	"_id": "_design/group",
	"language": "javascript",
	"views": {
		
		"by_id": {
			"map":"function(d) {\n\tif(d.doctype === 'group') {\n\t\temit(d._id, d);\n\t}\n}"
		},
		
		
		"by_name": {
			"map":"function(d) {\n\tif(d.doctype === 'group') {\n\t\temit(d.name, d);\n\t}\n}"
		},
		
		"by_owner_organizer": {
			"map":"function(d) {\n\t\n\tif(d.doctype === 'group') {\n\t\t\n\t\t// Emit the document indexed by owner\n\t\temit({ owner: d.owner }, d);\n\t\t\n\t\t// Emit the document indexed by organizers\n\t\tif(d.organizerIds) {\n\t\t\n\t\t\tfor(var i = 0, collection = d.organizerIds, length = collection.length;\n\t\t\t\t\ti < length; ++i) {\n\t\t\t\t\n\t\t\t\temit({ organizer: collection[i] }, d);\n\t\t\t\t\t\n\t\t\t}\n\t\t\n\t\t}\n\t\t\n\t}\n\t\n}"
		},
		
		"by_invitee": {
			"map":"function(d) {\n\n\tif(d.doctype === 'group') {\n\t\t\n\t\t// Emit the document indexed by invitees\n\t\tif(d.invitedIds) {\n\t\t\n\t\t\tfor(var i = 0, collection = d.invitedIds, length = collection.length;\n\t\t\t\t\ti < length; ++i) {\n\t\t\t\t\n\t\t\t\temit(collection[i], d);\n\t\t\t\t\t\n\t\t\t}\n\t\t\n\t\t}\n\t\n\t}\n\t\n}"
		},
		
		"by_member": {
			"map":"function(d) {\n\n\tif(d.doctype === 'group') {\n\t\n\t\t// Determine the public status\n\t\tvar gpublic = d['public'] ? true : false;\n\t\t\n\t\t// The owner is a member too\n\t\temit([d.owner, gpublic], d);\n\t\t\n\t\t// Emit the document indexed by memberIds\n\t\tif(d.memberIds) {\n\t\t\n\t\t\tfor(var i = 0, collection = d.memberIds, length = collection.length;\n\t\t\t\t\ti < length; ++i) {\n\t\t\t\t\n\t\t\t\temit([collection[i], gpublic], d);\n\t\t\t\t\t\n\t\t\t}\n\t\t\n\t\t}\n\t\n\t}\n\t\n}"
		}
		
	}
}
