||||||||||||||||||||||||||||||||||||||||||||||||||||||||||||||

                            For v1.0

[User Status]
Need to be added to User or ???


|||||||||||||||||||||||||||||||||||||||||||||||||||||||||||||


||||||||||||||||||||||||||||||||||||||||||||||||||||||||||||||
||||||||||||||||||||||||||||||||||||||||||||||||||||||||||||||

							For v2.1:

||||||||||||||||||||||||||||||||||||||||||||||||||||||||||||||
||||||||||||||||||||||||||||||||||||||||||||||||||||||||||||||

[Library]
Collection of resources. One type of resource can be folder

[ActivitySchema]
Database level definitions of different activityType's schemas.

[ResourceSchema]
Database level definitions of resource schemas.

[Sync]
Sync between plug server and main server
